{
	"0": {
		"0" : false
	},
	"1": {
		"0" : "areaTotal",
		"1" : "yearEnd",
		"2" : "areaLand"
	},
	"2": {
		"0" : "areaTotal",
		"2" : "areaLand"
	},
	"3": {
		"0" : "areaTotal",
		"1" : "yearEnd",
		"2" : "areaLand"
	},
	"4": {
		"0" : "areaTotal",
		"1" : "yearEnd"
	},
	"5": {
		"0" : "areaTotal",
		"2" : "areaLand"
	},
	"6": {
		"0" : "areaTotal"
	},
	"7": {
		"0" : "areaTotal",
		"1" : "areaLand"
	},
	"8": {
		"0" : "areaTotal",
		"1" : "yearEnd"
	},
	"9": {
		"0" : "areaLand"
	},
	"10": {
		"0" : "decoration",
		"1" : "areaTotal"
	},
	"11": {
		"0" : "areaTotal"
	},
	"12": {
		"0" : "areaTotal",
		"1" : "yearEnd",
		"2" : "typeFinishing"
	}
}